; ModuleID = 'benchmarks_tacas/s3_srvr_10_BUG.cil.c.ufo.co.bc'
target datalayout = "e-p:64:64:64-i1:8:8-i8:8:8-i16:16:16-i32:32:32-i64:64:64-f32:32:32-f64:64:64-v64:64:64-v128:128:128-a0:0:64-s0:64:64-f80:128:128"
target triple = "x86_64-unknown-linux-gnu"

declare i32 @nondet_int(...)

declare i64 @nondet_ulong()

declare i64 @nondet_long()

define i32 @main() noreturn nounwind {
entry:
  %0 = tail call i32 (...)* @nondet_int() nounwind
  %1 = tail call i32 (...)* @nondet_int() nounwind
  %2 = tail call i32 (...)* @nondet_int() nounwind
  %3 = tail call i64 @nondet_ulong() nounwind
  %4 = tail call i32 (...)* @nondet_int() nounwind
  %5 = tail call i64 @nondet_ulong() nounwind
  %6 = tail call i64 @nondet_ulong() nounwind
  %7 = tail call i64 @nondet_ulong() nounwind
  %8 = tail call i64 @nondet_ulong() nounwind
  %9 = tail call i32 (...)* @nondet_int() nounwind
  %10 = tail call i32 (...)* @nondet_int() nounwind
  %11 = tail call i32 (...)* @nondet_int() nounwind
  %12 = tail call i32 (...)* @nondet_int() nounwind
  %13 = tail call i64 @nondet_long() nounwind
  %14 = tail call i32 (...)* @nondet_int() nounwind
  %15 = tail call i32 (...)* @nondet_int() nounwind
  %16 = tail call i32 (...)* @nondet_int() nounwind
  %17 = tail call i32 (...)* @nondet_int() nounwind
  %18 = tail call i32 (...)* @nondet_int() nounwind
  %19 = tail call i32 (...)* @nondet_int() nounwind
  %20 = tail call i32 (...)* @nondet_int() nounwind
  %21 = tail call i32 (...)* @nondet_int() nounwind
  %22 = tail call i32 (...)* @nondet_int() nounwind
  %23 = tail call i32 (...)* @nondet_int() nounwind
  %24 = tail call i64 @nondet_long() nounwind
  %25 = tail call i32 (...)* @nondet_int() nounwind
  %26 = tail call i64 @nondet_ulong() nounwind
  %27 = tail call i64 @nondet_ulong() nounwind
  %28 = tail call i64 @nondet_ulong() nounwind
  %29 = tail call i32 (...)* @nondet_int() nounwind
  %30 = tail call i32 (...)* @nondet_int() nounwind
  %31 = tail call i32 (...)* @nondet_int() nounwind
  %32 = tail call i32 (...)* @nondet_int() nounwind
  %33 = tail call i32 (...)* @nondet_int() nounwind
  %34 = tail call i32 (...)* @nondet_int() nounwind
  %35 = tail call i32 (...)* @nondet_int() nounwind
  %36 = tail call i32 (...)* @nondet_int() nounwind
  %37 = tail call i32 (...)* @nondet_int() nounwind
  %38 = tail call i32 (...)* @nondet_int() nounwind
  %39 = tail call i32 (...)* @nondet_int() nounwind
  %40 = tail call i32 (...)* @nondet_int() nounwind
  %41 = tail call i32 (...)* @nondet_int() nounwind
  %42 = tail call i32 (...)* @nondet_int() nounwind
  %43 = tail call i32 (...)* @nondet_int() nounwind
  %44 = tail call i32 (...)* @nondet_int() nounwind
  %45 = tail call i32 (...)* @nondet_int() nounwind
  %46 = tail call i32 (...)* @nondet_int() nounwind
  %47 = tail call i32 (...)* @nondet_int() nounwind
  %48 = tail call i32 (...)* @nondet_int() nounwind
  %49 = tail call i32 (...)* @nondet_int() nounwind
  %50 = tail call i32 (...)* @nondet_int() nounwind
  %51 = tail call i32 (...)* @nondet_int() nounwind
  %52 = tail call i32 (...)* @nondet_int() nounwind
  %53 = tail call i32 (...)* @nondet_int() nounwind
  %54 = tail call i32 (...)* @nondet_int() nounwind
  %55 = tail call i32 (...)* @nondet_int() nounwind
  %56 = tail call i32 (...)* @nondet_int() nounwind
  %57 = tail call i32 (...)* @nondet_int() nounwind
  %58 = tail call i32 (...)* @nondet_int() nounwind
  %59 = tail call i32 (...)* @nondet_int() nounwind
  %60 = icmp eq i32 %59, 0
  br i1 %60, label %bb1.i, label %bb3.i

bb1.i:                                            ; preds = %entry
  %61 = icmp eq i32 %41, 0
  br i1 %61, label %bb3.i, label %bb2.i

bb2.i:                                            ; preds = %bb1.i
  br label %bb3.i

bb3.i:                                            ; preds = %bb2.i, %bb1.i, %entry
  %cb.0.i = phi i32 [ %41, %bb2.i ], [ %59, %entry ], [ 0, %bb1.i ]
  %62 = icmp eq i32 %46, 0
  br i1 %62, label %__UFO__0, label %bb5.i.preheader

bb5.i.preheader:                                  ; preds = %bb3.i
  %63 = icmp eq i32 %44, -1
  %64 = icmp ne i32 %43, 0
  %65 = icmp ne i32 %44, -4
  %or.cond = and i1 %65, %64
  %or.cond.not = xor i1 %or.cond, true
  %66 = icmp ne i32 %44, -2
  %or.cond5 = and i1 %66, %or.cond.not
  %67 = icmp ne i32 %cb.0.i, 0
  %68 = icmp ne i32 %59, 0
  %or.cond1 = and i1 %67, %68
  %69 = icmp eq i32 %48, 0
  %70 = icmp ne i32 %51, 0
  %s__state.2.i = select i1 %70, i32 8656, i32 8512
  %71 = icmp slt i64 %13, 1
  %s__state.3.i = select i1 %70, i32 3, i32 8656
  %s__s3__tmp__next_state___0.2.i = select i1 %70, i32 8640, i32 3
  br label %bb5.i.outer

bb5.i.outer:                                      ; preds = %bb134.i, %bb133.i, %bb5.i.preheader
  %s__s3__tmp__next_state___0.1.i.ph = phi i32 [ %32, %bb5.i.preheader ], [ %s__s3__tmp__next_state___0.0.i.ph, %bb133.i ], [ %s__s3__tmp__next_state___0.0.i.ph, %bb134.i ]
  %s__state.1.i.ph = phi i32 [ 8464, %bb5.i.preheader ], [ %s__state.0.i.ph, %bb133.i ], [ %s__state.0.i.ph, %bb134.i ]
  %blastFlag.2.i.ph = phi i32 [ 0, %bb5.i.preheader ], [ %blastFlag.1.i.ph, %bb133.i ], [ %blastFlag.1.i.ph, %bb134.i ]
  br i1 %or.cond5, label %bb5.i.outer.split.us, label %bb5.i.outer.split

bb5.i.outer.split.us:                             ; preds = %bb5.i.outer
  br i1 %63, label %NodeBlock415, label %NodeBlock486

NodeBlock415:                                     ; preds = %LeafBlock365, %LeafBlock377, %bb5.i.outer.split.us
  %s__state.1.i.us.us = phi i32 [ %s__state.1.i.ph, %bb5.i.outer.split.us ], [ 8528, %LeafBlock365 ], [ 8560, %LeafBlock377 ]
  %Pivot416 = icmp slt i32 %s__state.1.i.us.us, 8544
  br i1 %Pivot416, label %NodeBlock375, label %NodeBlock413

NodeBlock413:                                     ; preds = %NodeBlock415
  %Pivot414 = icmp slt i32 %s__state.1.i.us.us, 8608
  br i1 %Pivot414, label %NodeBlock393, label %NodeBlock411

NodeBlock411:                                     ; preds = %NodeBlock413
  %Pivot412 = icmp slt i32 %s__state.1.i.us.us, 8656
  br i1 %Pivot412, label %NodeBlock401, label %NodeBlock409

NodeBlock409:                                     ; preds = %NodeBlock411
  %Pivot410 = icmp slt i32 %s__state.1.i.us.us, 8672
  br i1 %Pivot410, label %LeafBlock403, label %LeafBlock406

LeafBlock406:                                     ; preds = %NodeBlock409
  %s__state.1.i.us.us.off407 = add i32 %s__state.1.i.us.us, -8672
  %SwitchLeaf408 = icmp ugt i32 %s__state.1.i.us.us.off407, 1
  br i1 %SwitchLeaf408, label %__UFO__0, label %switch_1_8673.i

LeafBlock403:                                     ; preds = %NodeBlock409
  %s__state.1.i.us.us.off404 = add i32 %s__state.1.i.us.us, -8656
  %SwitchLeaf405 = icmp ugt i32 %s__state.1.i.us.us.off404, 1
  br i1 %SwitchLeaf405, label %__UFO__0, label %switch_1_8657.i

NodeBlock401:                                     ; preds = %NodeBlock411
  %Pivot402 = icmp slt i32 %s__state.1.i.us.us, 8640
  br i1 %Pivot402, label %LeafBlock395, label %LeafBlock398

LeafBlock398:                                     ; preds = %NodeBlock401
  %s__state.1.i.us.us.off399 = add i32 %s__state.1.i.us.us, -8640
  %SwitchLeaf400 = icmp ugt i32 %s__state.1.i.us.us.off399, 1
  br i1 %SwitchLeaf400, label %__UFO__0, label %switch_1_8641.i

LeafBlock395:                                     ; preds = %NodeBlock401
  %s__state.1.i.us.us.off396 = add i32 %s__state.1.i.us.us, -8608
  %SwitchLeaf397 = icmp ugt i32 %s__state.1.i.us.us.off396, 1
  br i1 %SwitchLeaf397, label %__UFO__0, label %switch_1_8609.i

NodeBlock393:                                     ; preds = %NodeBlock413
  %Pivot394 = icmp slt i32 %s__state.1.i.us.us, 8576
  br i1 %Pivot394, label %NodeBlock383, label %NodeBlock391

NodeBlock391:                                     ; preds = %NodeBlock393
  %Pivot392 = icmp slt i32 %s__state.1.i.us.us, 8592
  br i1 %Pivot392, label %LeafBlock385, label %LeafBlock388

LeafBlock388:                                     ; preds = %NodeBlock391
  %s__state.1.i.us.us.off389 = add i32 %s__state.1.i.us.us, -8592
  %SwitchLeaf390 = icmp ugt i32 %s__state.1.i.us.us.off389, 1
  br i1 %SwitchLeaf390, label %__UFO__0, label %switch_1_8593.i

LeafBlock385:                                     ; preds = %NodeBlock391
  %s__state.1.i.us.us.off386 = add i32 %s__state.1.i.us.us, -8576
  %SwitchLeaf387 = icmp ugt i32 %s__state.1.i.us.us.off386, 1
  br i1 %SwitchLeaf387, label %__UFO__0, label %switch_1_8577.i

NodeBlock383:                                     ; preds = %NodeBlock393
  %Pivot384 = icmp slt i32 %s__state.1.i.us.us, 8560
  br i1 %Pivot384, label %LeafBlock377, label %LeafBlock380

LeafBlock380:                                     ; preds = %NodeBlock383
  %s__state.1.i.us.us.off381 = add i32 %s__state.1.i.us.us, -8560
  %SwitchLeaf382 = icmp ugt i32 %s__state.1.i.us.us.off381, 1
  br i1 %SwitchLeaf382, label %__UFO__0, label %switch_1_8561.i

LeafBlock377:                                     ; preds = %NodeBlock383
  %s__state.1.i.us.us.off378 = add i32 %s__state.1.i.us.us, -8544
  %SwitchLeaf379 = icmp ugt i32 %s__state.1.i.us.us.off378, 1
  br i1 %SwitchLeaf379, label %__UFO__0, label %NodeBlock415

NodeBlock375:                                     ; preds = %NodeBlock415
  %Pivot376 = icmp slt i32 %s__state.1.i.us.us, 8482
  br i1 %Pivot376, label %NodeBlock356, label %NodeBlock373

NodeBlock373:                                     ; preds = %NodeBlock375
  %Pivot374 = icmp slt i32 %s__state.1.i.us.us, 8512
  br i1 %Pivot374, label %NodeBlock363, label %NodeBlock371

NodeBlock371:                                     ; preds = %NodeBlock373
  %Pivot372 = icmp slt i32 %s__state.1.i.us.us, 8528
  br i1 %Pivot372, label %LeafBlock365, label %LeafBlock368

LeafBlock368:                                     ; preds = %NodeBlock371
  %s__state.1.i.us.us.off369 = add i32 %s__state.1.i.us.us, -8528
  %SwitchLeaf370 = icmp ugt i32 %s__state.1.i.us.us.off369, 1
  br i1 %SwitchLeaf370, label %__UFO__0, label %switch_1_8529.i

LeafBlock365:                                     ; preds = %NodeBlock371
  %s__state.1.i.us.us.off366 = add i32 %s__state.1.i.us.us, -8512
  %SwitchLeaf367 = icmp ugt i32 %s__state.1.i.us.us.off366, 1
  br i1 %SwitchLeaf367, label %__UFO__0, label %NodeBlock415

NodeBlock363:                                     ; preds = %NodeBlock373
  %Pivot364 = icmp slt i32 %s__state.1.i.us.us, 8496
  br i1 %Pivot364, label %LeafBlock358, label %LeafBlock360

LeafBlock360:                                     ; preds = %NodeBlock363
  %s__state.1.i.us.us.off361 = add i32 %s__state.1.i.us.us, -8496
  %SwitchLeaf362 = icmp ugt i32 %s__state.1.i.us.us.off361, 1
  br i1 %SwitchLeaf362, label %__UFO__0, label %switch_1_8497.i

LeafBlock358:                                     ; preds = %NodeBlock363
  %SwitchLeaf359 = icmp eq i32 %s__state.1.i.us.us, 8482
  br i1 %SwitchLeaf359, label %bb129.i, label %__UFO__0

NodeBlock356:                                     ; preds = %NodeBlock375
  %Pivot357 = icmp slt i32 %s__state.1.i.us.us, 8464
  br i1 %Pivot357, label %LeafBlock, label %NodeBlock

NodeBlock:                                        ; preds = %NodeBlock356
  %Pivot = icmp slt i32 %s__state.1.i.us.us, 8480
  br i1 %Pivot, label %LeafBlock351, label %LeafBlock353

LeafBlock353:                                     ; preds = %NodeBlock
  %s__state.1.i.us.us.off354 = add i32 %s__state.1.i.us.us, -8480
  %SwitchLeaf355 = icmp ugt i32 %s__state.1.i.us.us.off354, 1
  br i1 %SwitchLeaf355, label %__UFO__0, label %switch_1_8481.i

LeafBlock351:                                     ; preds = %NodeBlock
  %s__state.1.i.us.us.off = add i32 %s__state.1.i.us.us, -8464
  %SwitchLeaf352 = icmp ugt i32 %s__state.1.i.us.us.off, 2
  br i1 %SwitchLeaf352, label %__UFO__0, label %switch_1_8466.i

LeafBlock:                                        ; preds = %NodeBlock356
  %SwitchLeaf = icmp eq i32 %s__state.1.i.us.us, 8448
  br i1 %SwitchLeaf, label %switch_1_8448.i.split, label %__UFO__0

NodeBlock486:                                     ; preds = %LeafBlock436, %bb5.i.outer.split.us
  %s__state.1.i.us = phi i32 [ %s__state.1.i.ph, %bb5.i.outer.split.us ], [ 8528, %LeafBlock436 ]
  %Pivot487 = icmp slt i32 %s__state.1.i.us, 8544
  br i1 %Pivot487, label %NodeBlock446, label %NodeBlock484

NodeBlock484:                                     ; preds = %NodeBlock486
  %Pivot485 = icmp slt i32 %s__state.1.i.us, 8608
  br i1 %Pivot485, label %NodeBlock464, label %NodeBlock482

NodeBlock482:                                     ; preds = %NodeBlock484
  %Pivot483 = icmp slt i32 %s__state.1.i.us, 8656
  br i1 %Pivot483, label %NodeBlock472, label %NodeBlock480

NodeBlock480:                                     ; preds = %NodeBlock482
  %Pivot481 = icmp slt i32 %s__state.1.i.us, 8672
  br i1 %Pivot481, label %LeafBlock474, label %LeafBlock477

LeafBlock477:                                     ; preds = %NodeBlock480
  %s__state.1.i.us.off478 = add i32 %s__state.1.i.us, -8672
  %SwitchLeaf479 = icmp ugt i32 %s__state.1.i.us.off478, 1
  br i1 %SwitchLeaf479, label %__UFO__0, label %switch_1_8673.i

LeafBlock474:                                     ; preds = %NodeBlock480
  %s__state.1.i.us.off475 = add i32 %s__state.1.i.us, -8656
  %SwitchLeaf476 = icmp ugt i32 %s__state.1.i.us.off475, 1
  br i1 %SwitchLeaf476, label %__UFO__0, label %switch_1_8657.i

NodeBlock472:                                     ; preds = %NodeBlock482
  %Pivot473 = icmp slt i32 %s__state.1.i.us, 8640
  br i1 %Pivot473, label %LeafBlock466, label %LeafBlock469

LeafBlock469:                                     ; preds = %NodeBlock472
  %s__state.1.i.us.off470 = add i32 %s__state.1.i.us, -8640
  %SwitchLeaf471 = icmp ugt i32 %s__state.1.i.us.off470, 1
  br i1 %SwitchLeaf471, label %__UFO__0, label %switch_1_8641.i

LeafBlock466:                                     ; preds = %NodeBlock472
  %s__state.1.i.us.off467 = add i32 %s__state.1.i.us, -8608
  %SwitchLeaf468 = icmp ugt i32 %s__state.1.i.us.off467, 1
  br i1 %SwitchLeaf468, label %__UFO__0, label %switch_1_8609.i

NodeBlock464:                                     ; preds = %NodeBlock484
  %Pivot465 = icmp slt i32 %s__state.1.i.us, 8576
  br i1 %Pivot465, label %NodeBlock454, label %NodeBlock462

NodeBlock462:                                     ; preds = %NodeBlock464
  %Pivot463 = icmp slt i32 %s__state.1.i.us, 8592
  br i1 %Pivot463, label %LeafBlock456, label %LeafBlock459

LeafBlock459:                                     ; preds = %NodeBlock462
  %s__state.1.i.us.off460 = add i32 %s__state.1.i.us, -8592
  %SwitchLeaf461 = icmp ugt i32 %s__state.1.i.us.off460, 1
  br i1 %SwitchLeaf461, label %__UFO__0, label %switch_1_8593.i

LeafBlock456:                                     ; preds = %NodeBlock462
  %s__state.1.i.us.off457 = add i32 %s__state.1.i.us, -8576
  %SwitchLeaf458 = icmp ugt i32 %s__state.1.i.us.off457, 1
  br i1 %SwitchLeaf458, label %__UFO__0, label %switch_1_8577.i

NodeBlock454:                                     ; preds = %NodeBlock464
  %Pivot455 = icmp slt i32 %s__state.1.i.us, 8560
  br i1 %Pivot455, label %LeafBlock448, label %LeafBlock451

LeafBlock451:                                     ; preds = %NodeBlock454
  %s__state.1.i.us.off452 = add i32 %s__state.1.i.us, -8560
  %SwitchLeaf453 = icmp ugt i32 %s__state.1.i.us.off452, 1
  br i1 %SwitchLeaf453, label %__UFO__0, label %switch_1_8561.i

LeafBlock448:                                     ; preds = %NodeBlock454
  %s__state.1.i.us.off449 = add i32 %s__state.1.i.us, -8544
  %SwitchLeaf450 = icmp ugt i32 %s__state.1.i.us.off449, 1
  br i1 %SwitchLeaf450, label %__UFO__0, label %_L___1.i.split

NodeBlock446:                                     ; preds = %NodeBlock486
  %Pivot447 = icmp slt i32 %s__state.1.i.us, 8482
  br i1 %Pivot447, label %NodeBlock427, label %NodeBlock444

NodeBlock444:                                     ; preds = %NodeBlock446
  %Pivot445 = icmp slt i32 %s__state.1.i.us, 8512
  br i1 %Pivot445, label %NodeBlock434, label %NodeBlock442

NodeBlock442:                                     ; preds = %NodeBlock444
  %Pivot443 = icmp slt i32 %s__state.1.i.us, 8528
  br i1 %Pivot443, label %LeafBlock436, label %LeafBlock439

LeafBlock439:                                     ; preds = %NodeBlock442
  %s__state.1.i.us.off440 = add i32 %s__state.1.i.us, -8528
  %SwitchLeaf441 = icmp ugt i32 %s__state.1.i.us.off440, 1
  br i1 %SwitchLeaf441, label %__UFO__0, label %switch_1_8529.i

LeafBlock436:                                     ; preds = %NodeBlock442
  %s__state.1.i.us.off437 = add i32 %s__state.1.i.us, -8512
  %SwitchLeaf438 = icmp ugt i32 %s__state.1.i.us.off437, 1
  br i1 %SwitchLeaf438, label %__UFO__0, label %NodeBlock486

NodeBlock434:                                     ; preds = %NodeBlock444
  %Pivot435 = icmp slt i32 %s__state.1.i.us, 8496
  br i1 %Pivot435, label %LeafBlock429, label %LeafBlock431

LeafBlock431:                                     ; preds = %NodeBlock434
  %s__state.1.i.us.off432 = add i32 %s__state.1.i.us, -8496
  %SwitchLeaf433 = icmp ugt i32 %s__state.1.i.us.off432, 1
  br i1 %SwitchLeaf433, label %__UFO__0, label %switch_1_8497.i

LeafBlock429:                                     ; preds = %NodeBlock434
  %SwitchLeaf430 = icmp eq i32 %s__state.1.i.us, 8482
  br i1 %SwitchLeaf430, label %bb129.i, label %__UFO__0

NodeBlock427:                                     ; preds = %NodeBlock446
  %Pivot428 = icmp slt i32 %s__state.1.i.us, 8464
  br i1 %Pivot428, label %LeafBlock418, label %NodeBlock425

NodeBlock425:                                     ; preds = %NodeBlock427
  %Pivot426 = icmp slt i32 %s__state.1.i.us, 8480
  br i1 %Pivot426, label %LeafBlock420, label %LeafBlock422

LeafBlock422:                                     ; preds = %NodeBlock425
  %s__state.1.i.us.off423 = add i32 %s__state.1.i.us, -8480
  %SwitchLeaf424 = icmp ugt i32 %s__state.1.i.us.off423, 1
  br i1 %SwitchLeaf424, label %__UFO__0, label %switch_1_8481.i

LeafBlock420:                                     ; preds = %NodeBlock425
  %s__state.1.i.us.off = add i32 %s__state.1.i.us, -8464
  %SwitchLeaf421 = icmp ugt i32 %s__state.1.i.us.off, 2
  br i1 %SwitchLeaf421, label %__UFO__0, label %switch_1_8466.i

LeafBlock418:                                     ; preds = %NodeBlock427
  %SwitchLeaf419 = icmp eq i32 %s__state.1.i.us, 8448
  br i1 %SwitchLeaf419, label %switch_1_8448.i.split, label %__UFO__0

bb5.i.outer.split:                                ; preds = %bb5.i.outer
  br i1 %63, label %NodeBlock557, label %NodeBlock628

NodeBlock557:                                     ; preds = %LeafBlock507, %LeafBlock519, %bb5.i.outer.split
  %s__state.1.i.us83 = phi i32 [ %s__state.1.i.ph, %bb5.i.outer.split ], [ 8528, %LeafBlock507 ], [ 8560, %LeafBlock519 ]
  %Pivot558 = icmp slt i32 %s__state.1.i.us83, 8544
  br i1 %Pivot558, label %NodeBlock517, label %NodeBlock555

NodeBlock555:                                     ; preds = %NodeBlock557
  %Pivot556 = icmp slt i32 %s__state.1.i.us83, 8608
  br i1 %Pivot556, label %NodeBlock535, label %NodeBlock553

NodeBlock553:                                     ; preds = %NodeBlock555
  %Pivot554 = icmp slt i32 %s__state.1.i.us83, 8656
  br i1 %Pivot554, label %NodeBlock543, label %NodeBlock551

NodeBlock551:                                     ; preds = %NodeBlock553
  %Pivot552 = icmp slt i32 %s__state.1.i.us83, 8672
  br i1 %Pivot552, label %LeafBlock545, label %LeafBlock548

LeafBlock548:                                     ; preds = %NodeBlock551
  %s__state.1.i.us83.off549 = add i32 %s__state.1.i.us83, -8672
  %SwitchLeaf550 = icmp ugt i32 %s__state.1.i.us83.off549, 1
  br i1 %SwitchLeaf550, label %__UFO__0, label %switch_1_8673.i

LeafBlock545:                                     ; preds = %NodeBlock551
  %s__state.1.i.us83.off546 = add i32 %s__state.1.i.us83, -8656
  %SwitchLeaf547 = icmp ugt i32 %s__state.1.i.us83.off546, 1
  br i1 %SwitchLeaf547, label %__UFO__0, label %switch_1_8657.i

NodeBlock543:                                     ; preds = %NodeBlock553
  %Pivot544 = icmp slt i32 %s__state.1.i.us83, 8640
  br i1 %Pivot544, label %LeafBlock537, label %LeafBlock540

LeafBlock540:                                     ; preds = %NodeBlock543
  %s__state.1.i.us83.off541 = add i32 %s__state.1.i.us83, -8640
  %SwitchLeaf542 = icmp ugt i32 %s__state.1.i.us83.off541, 1
  br i1 %SwitchLeaf542, label %__UFO__0, label %switch_1_8641.i

LeafBlock537:                                     ; preds = %NodeBlock543
  %s__state.1.i.us83.off538 = add i32 %s__state.1.i.us83, -8608
  %SwitchLeaf539 = icmp ugt i32 %s__state.1.i.us83.off538, 1
  br i1 %SwitchLeaf539, label %__UFO__0, label %switch_1_8609.i

NodeBlock535:                                     ; preds = %NodeBlock555
  %Pivot536 = icmp slt i32 %s__state.1.i.us83, 8576
  br i1 %Pivot536, label %NodeBlock525, label %NodeBlock533

NodeBlock533:                                     ; preds = %NodeBlock535
  %Pivot534 = icmp slt i32 %s__state.1.i.us83, 8592
  br i1 %Pivot534, label %LeafBlock527, label %LeafBlock530

LeafBlock530:                                     ; preds = %NodeBlock533
  %s__state.1.i.us83.off531 = add i32 %s__state.1.i.us83, -8592
  %SwitchLeaf532 = icmp ugt i32 %s__state.1.i.us83.off531, 1
  br i1 %SwitchLeaf532, label %__UFO__0, label %switch_1_8593.i

LeafBlock527:                                     ; preds = %NodeBlock533
  %s__state.1.i.us83.off528 = add i32 %s__state.1.i.us83, -8576
  %SwitchLeaf529 = icmp ugt i32 %s__state.1.i.us83.off528, 1
  br i1 %SwitchLeaf529, label %__UFO__0, label %switch_1_8577.i

NodeBlock525:                                     ; preds = %NodeBlock535
  %Pivot526 = icmp slt i32 %s__state.1.i.us83, 8560
  br i1 %Pivot526, label %LeafBlock519, label %LeafBlock522

LeafBlock522:                                     ; preds = %NodeBlock525
  %s__state.1.i.us83.off523 = add i32 %s__state.1.i.us83, -8560
  %SwitchLeaf524 = icmp ugt i32 %s__state.1.i.us83.off523, 1
  br i1 %SwitchLeaf524, label %__UFO__0, label %switch_1_8561.i

LeafBlock519:                                     ; preds = %NodeBlock525
  %s__state.1.i.us83.off520 = add i32 %s__state.1.i.us83, -8544
  %SwitchLeaf521 = icmp ugt i32 %s__state.1.i.us83.off520, 1
  br i1 %SwitchLeaf521, label %__UFO__0, label %NodeBlock557

NodeBlock517:                                     ; preds = %NodeBlock557
  %Pivot518 = icmp slt i32 %s__state.1.i.us83, 8482
  br i1 %Pivot518, label %NodeBlock498, label %NodeBlock515

NodeBlock515:                                     ; preds = %NodeBlock517
  %Pivot516 = icmp slt i32 %s__state.1.i.us83, 8512
  br i1 %Pivot516, label %NodeBlock505, label %NodeBlock513

NodeBlock513:                                     ; preds = %NodeBlock515
  %Pivot514 = icmp slt i32 %s__state.1.i.us83, 8528
  br i1 %Pivot514, label %LeafBlock507, label %LeafBlock510

LeafBlock510:                                     ; preds = %NodeBlock513
  %s__state.1.i.us83.off511 = add i32 %s__state.1.i.us83, -8528
  %SwitchLeaf512 = icmp ugt i32 %s__state.1.i.us83.off511, 1
  br i1 %SwitchLeaf512, label %__UFO__0, label %switch_1_8529.i

LeafBlock507:                                     ; preds = %NodeBlock513
  %s__state.1.i.us83.off508 = add i32 %s__state.1.i.us83, -8512
  %SwitchLeaf509 = icmp ugt i32 %s__state.1.i.us83.off508, 1
  br i1 %SwitchLeaf509, label %__UFO__0, label %NodeBlock557

NodeBlock505:                                     ; preds = %NodeBlock515
  %Pivot506 = icmp slt i32 %s__state.1.i.us83, 8496
  br i1 %Pivot506, label %LeafBlock500, label %LeafBlock502

LeafBlock502:                                     ; preds = %NodeBlock505
  %s__state.1.i.us83.off503 = add i32 %s__state.1.i.us83, -8496
  %SwitchLeaf504 = icmp ugt i32 %s__state.1.i.us83.off503, 1
  br i1 %SwitchLeaf504, label %__UFO__0, label %switch_1_8497.i

LeafBlock500:                                     ; preds = %NodeBlock505
  %SwitchLeaf501 = icmp eq i32 %s__state.1.i.us83, 8482
  br i1 %SwitchLeaf501, label %bb129.i, label %__UFO__0

NodeBlock498:                                     ; preds = %NodeBlock517
  %Pivot499 = icmp slt i32 %s__state.1.i.us83, 8464
  br i1 %Pivot499, label %LeafBlock489, label %NodeBlock496

NodeBlock496:                                     ; preds = %NodeBlock498
  %Pivot497 = icmp slt i32 %s__state.1.i.us83, 8480
  br i1 %Pivot497, label %LeafBlock491, label %LeafBlock493

LeafBlock493:                                     ; preds = %NodeBlock496
  %s__state.1.i.us83.off494 = add i32 %s__state.1.i.us83, -8480
  %SwitchLeaf495 = icmp ugt i32 %s__state.1.i.us83.off494, 1
  br i1 %SwitchLeaf495, label %__UFO__0, label %switch_1_8481.i

LeafBlock491:                                     ; preds = %NodeBlock496
  %s__state.1.i.us83.off = add i32 %s__state.1.i.us83, -8464
  %SwitchLeaf492 = icmp ugt i32 %s__state.1.i.us83.off, 2
  br i1 %SwitchLeaf492, label %__UFO__0, label %switch_1_8466.i

LeafBlock489:                                     ; preds = %NodeBlock498
  %SwitchLeaf490 = icmp eq i32 %s__state.1.i.us83, 8448
  br i1 %SwitchLeaf490, label %switch_1_8448.i.split, label %__UFO__0

NodeBlock628:                                     ; preds = %LeafBlock578, %LeafBlock590, %bb5.i.outer.split
  %s__state.1.i = phi i32 [ %s__state.1.i.ph, %bb5.i.outer.split ], [ 8528, %LeafBlock578 ], [ 8560, %LeafBlock590 ]
  %Pivot629 = icmp slt i32 %s__state.1.i, 8544
  br i1 %Pivot629, label %NodeBlock588, label %NodeBlock626

NodeBlock626:                                     ; preds = %NodeBlock628
  %Pivot627 = icmp slt i32 %s__state.1.i, 8608
  br i1 %Pivot627, label %NodeBlock606, label %NodeBlock624

NodeBlock624:                                     ; preds = %NodeBlock626
  %Pivot625 = icmp slt i32 %s__state.1.i, 8656
  br i1 %Pivot625, label %NodeBlock614, label %NodeBlock622

NodeBlock622:                                     ; preds = %NodeBlock624
  %Pivot623 = icmp slt i32 %s__state.1.i, 8672
  br i1 %Pivot623, label %LeafBlock616, label %LeafBlock619

LeafBlock619:                                     ; preds = %NodeBlock622
  %s__state.1.i.off620 = add i32 %s__state.1.i, -8672
  %SwitchLeaf621 = icmp ugt i32 %s__state.1.i.off620, 1
  br i1 %SwitchLeaf621, label %__UFO__0, label %switch_1_8673.i

LeafBlock616:                                     ; preds = %NodeBlock622
  %s__state.1.i.off617 = add i32 %s__state.1.i, -8656
  %SwitchLeaf618 = icmp ugt i32 %s__state.1.i.off617, 1
  br i1 %SwitchLeaf618, label %__UFO__0, label %switch_1_8657.i

NodeBlock614:                                     ; preds = %NodeBlock624
  %Pivot615 = icmp slt i32 %s__state.1.i, 8640
  br i1 %Pivot615, label %LeafBlock608, label %LeafBlock611

LeafBlock611:                                     ; preds = %NodeBlock614
  %s__state.1.i.off612 = add i32 %s__state.1.i, -8640
  %SwitchLeaf613 = icmp ugt i32 %s__state.1.i.off612, 1
  br i1 %SwitchLeaf613, label %__UFO__0, label %switch_1_8641.i

LeafBlock608:                                     ; preds = %NodeBlock614
  %s__state.1.i.off609 = add i32 %s__state.1.i, -8608
  %SwitchLeaf610 = icmp ugt i32 %s__state.1.i.off609, 1
  br i1 %SwitchLeaf610, label %__UFO__0, label %switch_1_8609.i

NodeBlock606:                                     ; preds = %NodeBlock626
  %Pivot607 = icmp slt i32 %s__state.1.i, 8576
  br i1 %Pivot607, label %NodeBlock596, label %NodeBlock604

NodeBlock604:                                     ; preds = %NodeBlock606
  %Pivot605 = icmp slt i32 %s__state.1.i, 8592
  br i1 %Pivot605, label %LeafBlock598, label %LeafBlock601

LeafBlock601:                                     ; preds = %NodeBlock604
  %s__state.1.i.off602 = add i32 %s__state.1.i, -8592
  %SwitchLeaf603 = icmp ugt i32 %s__state.1.i.off602, 1
  br i1 %SwitchLeaf603, label %__UFO__0, label %switch_1_8593.i

LeafBlock598:                                     ; preds = %NodeBlock604
  %s__state.1.i.off599 = add i32 %s__state.1.i, -8576
  %SwitchLeaf600 = icmp ugt i32 %s__state.1.i.off599, 1
  br i1 %SwitchLeaf600, label %__UFO__0, label %switch_1_8577.i

NodeBlock596:                                     ; preds = %NodeBlock606
  %Pivot597 = icmp slt i32 %s__state.1.i, 8560
  br i1 %Pivot597, label %LeafBlock590, label %LeafBlock593

LeafBlock593:                                     ; preds = %NodeBlock596
  %s__state.1.i.off594 = add i32 %s__state.1.i, -8560
  %SwitchLeaf595 = icmp ugt i32 %s__state.1.i.off594, 1
  br i1 %SwitchLeaf595, label %__UFO__0, label %switch_1_8561.i

LeafBlock590:                                     ; preds = %NodeBlock596
  %s__state.1.i.off591 = add i32 %s__state.1.i, -8544
  %SwitchLeaf592 = icmp ugt i32 %s__state.1.i.off591, 1
  br i1 %SwitchLeaf592, label %__UFO__0, label %NodeBlock628

NodeBlock588:                                     ; preds = %NodeBlock628
  %Pivot589 = icmp slt i32 %s__state.1.i, 8482
  br i1 %Pivot589, label %NodeBlock569, label %NodeBlock586

NodeBlock586:                                     ; preds = %NodeBlock588
  %Pivot587 = icmp slt i32 %s__state.1.i, 8512
  br i1 %Pivot587, label %NodeBlock576, label %NodeBlock584

NodeBlock584:                                     ; preds = %NodeBlock586
  %Pivot585 = icmp slt i32 %s__state.1.i, 8528
  br i1 %Pivot585, label %LeafBlock578, label %LeafBlock581

LeafBlock581:                                     ; preds = %NodeBlock584
  %s__state.1.i.off582 = add i32 %s__state.1.i, -8528
  %SwitchLeaf583 = icmp ugt i32 %s__state.1.i.off582, 1
  br i1 %SwitchLeaf583, label %__UFO__0, label %switch_1_8529.i

LeafBlock578:                                     ; preds = %NodeBlock584
  %s__state.1.i.off579 = add i32 %s__state.1.i, -8512
  %SwitchLeaf580 = icmp ugt i32 %s__state.1.i.off579, 1
  br i1 %SwitchLeaf580, label %__UFO__0, label %NodeBlock628

NodeBlock576:                                     ; preds = %NodeBlock586
  %Pivot577 = icmp slt i32 %s__state.1.i, 8496
  br i1 %Pivot577, label %LeafBlock571, label %LeafBlock573

LeafBlock573:                                     ; preds = %NodeBlock576
  %s__state.1.i.off574 = add i32 %s__state.1.i, -8496
  %SwitchLeaf575 = icmp ugt i32 %s__state.1.i.off574, 1
  br i1 %SwitchLeaf575, label %__UFO__0, label %switch_1_8497.i

LeafBlock571:                                     ; preds = %NodeBlock576
  %SwitchLeaf572 = icmp eq i32 %s__state.1.i, 8482
  br i1 %SwitchLeaf572, label %bb129.i, label %__UFO__0

NodeBlock569:                                     ; preds = %NodeBlock588
  %Pivot570 = icmp slt i32 %s__state.1.i, 8464
  br i1 %Pivot570, label %LeafBlock560, label %NodeBlock567

NodeBlock567:                                     ; preds = %NodeBlock569
  %Pivot568 = icmp slt i32 %s__state.1.i, 8480
  br i1 %Pivot568, label %LeafBlock562, label %LeafBlock564

LeafBlock564:                                     ; preds = %NodeBlock567
  %s__state.1.i.off565 = add i32 %s__state.1.i, -8480
  %SwitchLeaf566 = icmp ugt i32 %s__state.1.i.off565, 1
  br i1 %SwitchLeaf566, label %__UFO__0, label %switch_1_8481.i

LeafBlock562:                                     ; preds = %NodeBlock567
  %s__state.1.i.off = add i32 %s__state.1.i, -8464
  %SwitchLeaf563 = icmp ugt i32 %s__state.1.i.off, 2
  br i1 %SwitchLeaf563, label %__UFO__0, label %switch_1_8466.i

LeafBlock560:                                     ; preds = %NodeBlock569
  %SwitchLeaf561 = icmp eq i32 %s__state.1.i, 8448
  br i1 %SwitchLeaf561, label %switch_1_8448.i.split, label %__UFO__0

switch_1_8481.i:                                  ; preds = %LeafBlock564, %LeafBlock493, %LeafBlock422, %LeafBlock353
  %s__state.1.i.lcssa35 = phi i32 [ %s__state.1.i.us, %LeafBlock422 ], [ %s__state.1.i.us.us, %LeafBlock353 ], [ %s__state.1.i, %LeafBlock564 ], [ %s__state.1.i.us83, %LeafBlock493 ]
  %72 = tail call i32 (...)* @nondet_int() nounwind
  %73 = icmp sgt i32 %72, 0
  br i1 %73, label %bb129.i, label %__UFO__0

switch_1_8466.i:                                  ; preds = %LeafBlock562, %LeafBlock491, %LeafBlock420, %LeafBlock351
  %s__state.1.i.lcssa37 = phi i32 [ %s__state.1.i.us, %LeafBlock420 ], [ %s__state.1.i.us.us, %LeafBlock351 ], [ %s__state.1.i, %LeafBlock562 ], [ %s__state.1.i.us83, %LeafBlock491 ]
  %74 = tail call i32 (...)* @nondet_int() nounwind
  %75 = icmp eq i32 %blastFlag.2.i.ph, 0
  %blastFlag.0.i = select i1 %75, i32 1, i32 %blastFlag.2.i.ph
  %76 = icmp sgt i32 %74, 0
  br i1 %76, label %bb129.i, label %__UFO__0

switch_1_8497.i:                                  ; preds = %LeafBlock573, %LeafBlock502, %LeafBlock431, %LeafBlock360
  %s__state.1.i.lcssa38 = phi i32 [ %s__state.1.i.us, %LeafBlock431 ], [ %s__state.1.i.us.us, %LeafBlock360 ], [ %s__state.1.i, %LeafBlock573 ], [ %s__state.1.i.us83, %LeafBlock502 ]
  %77 = tail call i32 (...)* @nondet_int() nounwind
  %78 = icmp eq i32 %blastFlag.2.i.ph, 1
  %blastFlag.3.i = select i1 %78, i32 2, i32 %blastFlag.2.i.ph
  %79 = icmp sgt i32 %77, 0
  br i1 %79, label %bb129.i, label %__UFO__0

switch_1_8529.i:                                  ; preds = %LeafBlock581, %LeafBlock510, %LeafBlock439, %LeafBlock368
  %s__state.1.i.lcssa39 = phi i32 [ %s__state.1.i.us, %LeafBlock439 ], [ %s__state.1.i.us.us, %LeafBlock368 ], [ %s__state.1.i, %LeafBlock581 ], [ %s__state.1.i.us83, %LeafBlock510 ]
  %80 = tail call i32 (...)* @nondet_int() nounwind
  %81 = icmp sgt i32 %80, 0
  br i1 %81, label %bb129.i, label %__UFO__0

_L___1.i.split:                                   ; preds = %LeafBlock448
  %82 = tail call i32 (...)* @nondet_int() nounwind
  %83 = icmp sgt i32 %82, 0
  br i1 %83, label %bb129.i, label %__UFO__0

switch_1_8561.i:                                  ; preds = %LeafBlock593, %LeafBlock522, %LeafBlock451, %LeafBlock380
  %s__state.1.i.lcssa40 = phi i32 [ %s__state.1.i.us, %LeafBlock451 ], [ %s__state.1.i.us.us, %LeafBlock380 ], [ %s__state.1.i, %LeafBlock593 ], [ %s__state.1.i.us83, %LeafBlock522 ]
  %84 = tail call i32 (...)* @nondet_int() nounwind
  %85 = icmp sgt i32 %84, 0
  br i1 %85, label %bb129.i, label %__UFO__0

switch_1_8448.i.split:                            ; preds = %LeafBlock560, %LeafBlock489, %LeafBlock418, %LeafBlock
  %s__state.1.i.lcssa41.us-lcssa = phi i32 [ %s__state.1.i.us, %LeafBlock418 ], [ %s__state.1.i.us.us, %LeafBlock ], [ %s__state.1.i, %LeafBlock560 ], [ %s__state.1.i.us83, %LeafBlock489 ]
  %86 = tail call i32 (...)* @nondet_int() nounwind
  %87 = icmp sgt i32 %86, 0
  %or.cond6 = and i1 %87, %71
  br i1 %or.cond6, label %__UFO__0, label %bb129.i

switch_1_8577.i:                                  ; preds = %LeafBlock598, %LeafBlock527, %LeafBlock456, %LeafBlock385
  %s__state.1.i.lcssa42 = phi i32 [ %s__state.1.i.us, %LeafBlock456 ], [ %s__state.1.i.us.us, %LeafBlock385 ], [ %s__state.1.i, %LeafBlock598 ], [ %s__state.1.i.us83, %LeafBlock527 ]
  %88 = tail call i32 (...)* @nondet_int() nounwind
  %89 = icmp sgt i32 %88, 0
  br i1 %89, label %bb99.i, label %__UFO__0

bb99.i:                                           ; preds = %switch_1_8577.i
  %90 = icmp eq i32 %88, 2
  br i1 %90, label %bb129.i, label %bb101.i

bb101.i:                                          ; preds = %bb99.i
  %91 = tail call i32 (...)* @nondet_int() nounwind
  %92 = icmp sgt i32 %91, 0
  br i1 %92, label %bb129.i, label %__UFO__0

switch_1_8593.i:                                  ; preds = %LeafBlock601, %LeafBlock530, %LeafBlock459, %LeafBlock388
  %s__state.1.i.lcssa43 = phi i32 [ %s__state.1.i.us, %LeafBlock459 ], [ %s__state.1.i.us.us, %LeafBlock388 ], [ %s__state.1.i, %LeafBlock601 ], [ %s__state.1.i.us83, %LeafBlock530 ]
  %93 = tail call i32 (...)* @nondet_int() nounwind
  %94 = icmp sgt i32 %93, 0
  br i1 %94, label %bb129.i, label %__UFO__0

switch_1_8609.i:                                  ; preds = %LeafBlock608, %LeafBlock537, %LeafBlock466, %LeafBlock395
  %s__state.1.i.lcssa44 = phi i32 [ %s__state.1.i.us, %LeafBlock466 ], [ %s__state.1.i.us.us, %LeafBlock395 ], [ %s__state.1.i, %LeafBlock608 ], [ %s__state.1.i.us83, %LeafBlock537 ]
  %95 = tail call i32 (...)* @nondet_int() nounwind
  %96 = icmp sgt i32 %95, 0
  br i1 %96, label %bb129.i, label %__UFO__0

switch_1_8641.i:                                  ; preds = %LeafBlock611, %LeafBlock540, %LeafBlock469, %LeafBlock398
  %s__state.1.i.lcssa45 = phi i32 [ %s__state.1.i.us, %LeafBlock469 ], [ %s__state.1.i.us.us, %LeafBlock398 ], [ %s__state.1.i, %LeafBlock611 ], [ %s__state.1.i.us83, %LeafBlock540 ]
  %97 = tail call i32 (...)* @nondet_int() nounwind
  %98 = icmp eq i32 %blastFlag.2.i.ph, 3
  %blastFlag.4.i = select i1 %98, i32 4, i32 %blastFlag.2.i.ph
  %99 = icmp sgt i32 %97, 0
  br i1 %99, label %bb129.i, label %__UFO__0

switch_1_8657.i:                                  ; preds = %LeafBlock616, %LeafBlock545, %LeafBlock474, %LeafBlock403
  %s__state.1.i.lcssa46 = phi i32 [ %s__state.1.i.us, %LeafBlock474 ], [ %s__state.1.i.us.us, %LeafBlock403 ], [ %s__state.1.i, %LeafBlock616 ], [ %s__state.1.i.us83, %LeafBlock545 ]
  %100 = tail call i32 (...)* @nondet_int() nounwind
  %101 = icmp eq i32 %100, 0
  br i1 %101, label %__UFO__0, label %bb113.i

bb113.i:                                          ; preds = %switch_1_8657.i
  %102 = tail call i32 (...)* @nondet_int() nounwind
  %103 = icmp eq i32 %blastFlag.2.i.ph, 2
  %blastFlag.5.i = select i1 %103, i32 3, i32 %blastFlag.2.i.ph
  %104 = icmp sgt i32 %102, 0
  br i1 %104, label %bb116.i, label %__UFO__0

bb116.i:                                          ; preds = %bb113.i
  %105 = tail call i32 (...)* @nondet_int() nounwind
  %106 = icmp eq i32 %105, 0
  br i1 %106, label %__UFO__0, label %bb129.i

switch_1_8673.i:                                  ; preds = %LeafBlock619, %LeafBlock548, %LeafBlock477, %LeafBlock406
  %s__state.1.i.lcssa47 = phi i32 [ %s__state.1.i.us, %LeafBlock477 ], [ %s__state.1.i.us.us, %LeafBlock406 ], [ %s__state.1.i, %LeafBlock619 ], [ %s__state.1.i.us83, %LeafBlock548 ]
  %107 = tail call i32 (...)* @nondet_int() nounwind
  %Pivot636 = icmp slt i32 %blastFlag.2.i.ph, 5
  br i1 %Pivot636, label %LeafBlock631, label %LeafBlock633

LeafBlock633:                                     ; preds = %switch_1_8673.i
  %SwitchLeaf634 = icmp eq i32 %blastFlag.2.i.ph, 5
  br i1 %SwitchLeaf634, label %ERROR.i, label %bb120.i.bb121.i_crit_edge

LeafBlock631:                                     ; preds = %switch_1_8673.i
  %SwitchLeaf632 = icmp eq i32 %blastFlag.2.i.ph, 4
  br i1 %SwitchLeaf632, label %bb121.i, label %bb120.i.bb121.i_crit_edge

bb120.i.bb121.i_crit_edge:                        ; preds = %LeafBlock631, %LeafBlock633
  br label %bb121.i

bb121.i:                                          ; preds = %bb120.i.bb121.i_crit_edge, %LeafBlock631
  %blastFlag.6.i = phi i32 [ %blastFlag.2.i.ph, %bb120.i.bb121.i_crit_edge ], [ 5, %LeafBlock631 ]
  %108 = icmp sgt i32 %107, 0
  br i1 %108, label %bb129.i, label %__UFO__0

bb129.i:                                          ; preds = %bb121.i, %bb116.i, %switch_1_8641.i, %switch_1_8609.i, %switch_1_8593.i, %bb101.i, %bb99.i, %switch_1_8448.i.split, %switch_1_8561.i, %_L___1.i.split, %switch_1_8529.i, %switch_1_8497.i, %switch_1_8466.i, %switch_1_8481.i, %LeafBlock571, %LeafBlock500, %LeafBlock429, %LeafBlock358
  %s__state.1.i.lcssa49 = phi i32 [ %s__state.1.i.lcssa35, %switch_1_8481.i ], [ %s__state.1.i.lcssa37, %switch_1_8466.i ], [ %s__state.1.i.lcssa38, %switch_1_8497.i ], [ %s__state.1.i.lcssa39, %switch_1_8529.i ], [ %s__state.1.i.us, %_L___1.i.split ], [ %s__state.1.i.lcssa40, %switch_1_8561.i ], [ %s__state.1.i.lcssa41.us-lcssa, %switch_1_8448.i.split ], [ %s__state.1.i.lcssa42, %bb99.i ], [ %s__state.1.i.lcssa42, %bb101.i ], [ %s__state.1.i.lcssa43, %switch_1_8593.i ], [ %s__state.1.i.lcssa44, %switch_1_8609.i ], [ %s__state.1.i.lcssa45, %switch_1_8641.i ], [ %s__state.1.i.lcssa46, %bb116.i ], [ %s__state.1.i.lcssa47, %bb121.i ], [ %s__state.1.i.us, %LeafBlock429 ], [ %s__state.1.i.us.us, %LeafBlock358 ], [ %s__state.1.i, %LeafBlock571 ], [ %s__state.1.i.us83, %LeafBlock500 ]
  %s__s3__tmp__next_state___0.0.i.ph = phi i32 [ 8482, %switch_1_8481.i ], [ %s__s3__tmp__next_state___0.1.i.ph, %switch_1_8466.i ], [ %s__s3__tmp__next_state___0.1.i.ph, %switch_1_8497.i ], [ %s__s3__tmp__next_state___0.1.i.ph, %switch_1_8529.i ], [ 8576, %_L___1.i.split ], [ 8576, %switch_1_8561.i ], [ %s__s3__tmp__next_state___0.1.i.ph, %switch_1_8448.i.split ], [ %s__s3__tmp__next_state___0.1.i.ph, %bb99.i ], [ %s__s3__tmp__next_state___0.1.i.ph, %bb101.i ], [ %s__s3__tmp__next_state___0.1.i.ph, %switch_1_8593.i ], [ %s__s3__tmp__next_state___0.1.i.ph, %switch_1_8609.i ], [ %s__s3__tmp__next_state___0.1.i.ph, %switch_1_8641.i ], [ %s__s3__tmp__next_state___0.1.i.ph, %bb116.i ], [ %s__s3__tmp__next_state___0.2.i, %bb121.i ], [ %s__s3__tmp__next_state___0.1.i.ph, %LeafBlock429 ], [ %s__s3__tmp__next_state___0.1.i.ph, %LeafBlock358 ], [ %s__s3__tmp__next_state___0.1.i.ph, %LeafBlock571 ], [ %s__s3__tmp__next_state___0.1.i.ph, %LeafBlock500 ]
  %s__state.0.i.ph = phi i32 [ 8448, %switch_1_8481.i ], [ 8496, %switch_1_8466.i ], [ %s__state.2.i, %switch_1_8497.i ], [ 8544, %switch_1_8529.i ], [ 8448, %_L___1.i.split ], [ 8448, %switch_1_8561.i ], [ %s__s3__tmp__next_state___0.1.i.ph, %switch_1_8448.i.split ], [ 8466, %bb99.i ], [ 8592, %bb101.i ], [ 8608, %switch_1_8593.i ], [ 8640, %switch_1_8609.i ], [ %s__state.3.i, %switch_1_8641.i ], [ 8672, %bb116.i ], [ 8448, %bb121.i ], [ 3, %LeafBlock429 ], [ 3, %LeafBlock358 ], [ 3, %LeafBlock571 ], [ 3, %LeafBlock500 ]
  %blastFlag.1.i.ph = phi i32 [ %blastFlag.2.i.ph, %switch_1_8481.i ], [ %blastFlag.0.i, %switch_1_8466.i ], [ %blastFlag.3.i, %switch_1_8497.i ], [ %blastFlag.2.i.ph, %switch_1_8529.i ], [ %blastFlag.2.i.ph, %_L___1.i.split ], [ %blastFlag.2.i.ph, %switch_1_8561.i ], [ %blastFlag.2.i.ph, %switch_1_8448.i.split ], [ %blastFlag.2.i.ph, %bb99.i ], [ %blastFlag.2.i.ph, %bb101.i ], [ %blastFlag.2.i.ph, %switch_1_8593.i ], [ %blastFlag.2.i.ph, %switch_1_8609.i ], [ %blastFlag.4.i, %switch_1_8641.i ], [ %blastFlag.5.i, %bb116.i ], [ %blastFlag.6.i, %bb121.i ], [ %blastFlag.2.i.ph, %LeafBlock429 ], [ %blastFlag.2.i.ph, %LeafBlock358 ], [ %blastFlag.2.i.ph, %LeafBlock571 ], [ %blastFlag.2.i.ph, %LeafBlock500 ]
  %109 = icmp eq i32 %s__state.1.i.lcssa49, 8464
  %110 = icmp eq i32 %s__state.0.i.ph, 8496
  %or.cond2 = and i1 %or.cond1, %109
  %or.cond3 = and i1 %or.cond2, %110
  br i1 %or.cond3, label %ERROR.i, label %bb133.i

bb133.i:                                          ; preds = %bb129.i
  br i1 %69, label %bb5.i.outer, label %bb134.i

bb134.i:                                          ; preds = %bb133.i
  %111 = tail call i32 (...)* @nondet_int() nounwind
  %112 = icmp sgt i32 %111, 0
  br i1 %112, label %bb5.i.outer, label %__UFO__0

ERROR.i:                                          ; preds = %bb129.i, %LeafBlock633
  ret i32 5

__UFO__0:                                         ; preds = %__UFO__0, %bb134.i, %bb121.i, %bb116.i, %bb113.i, %switch_1_8657.i, %switch_1_8641.i, %switch_1_8609.i, %switch_1_8593.i, %bb101.i, %switch_1_8577.i, %switch_1_8448.i.split, %switch_1_8561.i, %_L___1.i.split, %switch_1_8529.i, %switch_1_8497.i, %switch_1_8466.i, %switch_1_8481.i, %LeafBlock560, %LeafBlock562, %LeafBlock564, %LeafBlock571, %LeafBlock573, %LeafBlock578, %LeafBlock581, %LeafBlock590, %LeafBlock593, %LeafBlock598, %LeafBlock601, %LeafBlock608, %LeafBlock611, %LeafBlock616, %LeafBlock619, %LeafBlock489, %LeafBlock491, %LeafBlock493, %LeafBlock500, %LeafBlock502, %LeafBlock507, %LeafBlock510, %LeafBlock519, %LeafBlock522, %LeafBlock527, %LeafBlock530, %LeafBlock537, %LeafBlock540, %LeafBlock545, %LeafBlock548, %LeafBlock418, %LeafBlock420, %LeafBlock422, %LeafBlock429, %LeafBlock431, %LeafBlock436, %LeafBlock439, %LeafBlock448, %LeafBlock451, %LeafBlock456, %LeafBlock459, %LeafBlock466, %LeafBlock469, %LeafBlock474, %LeafBlock477, %LeafBlock, %LeafBlock351, %LeafBlock353, %LeafBlock358, %LeafBlock360, %LeafBlock365, %LeafBlock368, %LeafBlock377, %LeafBlock380, %LeafBlock385, %LeafBlock388, %LeafBlock395, %LeafBlock398, %LeafBlock403, %LeafBlock406, %bb3.i
  br label %__UFO__0
}
