# 1 "files/rule60_list2.c"
# 1 "<built-in>"
# 1 "<command-line>"
# 1 "files/rule60_list2.c"
# 1 "./assert.h" 1

void __blast_assert()
{
 ERROR: goto ERROR;
}
# 2 "files/rule60_list2.c" 2
# 1 "/usr/include/malloc.h" 1 3 4
# 24 "/usr/include/malloc.h" 3 4
# 1 "/usr/include/features.h" 1 3 4
# 347 "/usr/include/features.h" 3 4
# 1 "/usr/include/sys/cdefs.h" 1 3 4
# 353 "/usr/include/sys/cdefs.h" 3 4
# 1 "/usr/include/bits/wordsize.h" 1 3 4
# 354 "/usr/include/sys/cdefs.h" 2 3 4
# 348 "/usr/include/features.h" 2 3 4
# 371 "/usr/include/features.h" 3 4
# 1 "/usr/include/gnu/stubs.h" 1 3 4



# 1 "/usr/include/bits/wordsize.h" 1 3 4
# 5 "/usr/include/gnu/stubs.h" 2 3 4




# 1 "/usr/include/gnu/stubs-64.h" 1 3 4
# 10 "/usr/include/gnu/stubs.h" 2 3 4
# 372 "/usr/include/features.h" 2 3 4
# 25 "/usr/include/malloc.h" 2 3 4
# 1 "/usr/lib64/gcc/x86_64-suse-linux/4.5/include/stddef.h" 1 3 4
# 149 "/usr/lib64/gcc/x86_64-suse-linux/4.5/include/stddef.h" 3 4
typedef long int ptrdiff_t;
# 211 "/usr/lib64/gcc/x86_64-suse-linux/4.5/include/stddef.h" 3 4
typedef long unsigned int size_t;
# 323 "/usr/lib64/gcc/x86_64-suse-linux/4.5/include/stddef.h" 3 4
typedef int wchar_t;
# 26 "/usr/include/malloc.h" 2 3 4
# 1 "/usr/include/stdio.h" 1 3 4
# 30 "/usr/include/stdio.h" 3 4




# 1 "/usr/lib64/gcc/x86_64-suse-linux/4.5/include/stddef.h" 1 3 4
# 35 "/usr/include/stdio.h" 2 3 4

# 1 "/usr/include/bits/types.h" 1 3 4
# 28 "/usr/include/bits/types.h" 3 4
# 1 "/usr/include/bits/wordsize.h" 1 3 4
# 29 "/usr/include/bits/types.h" 2 3 4


typedef unsigned char __u_char;
typedef unsigned short int __u_short;
typedef unsigned int __u_int;
typedef unsigned long int __u_long;


typedef signed char __int8_t;
typedef unsigned char __uint8_t;
typedef signed short int __int16_t;
typedef unsigned short int __uint16_t;
typedef signed int __int32_t;
typedef unsigned int __uint32_t;

typedef signed long int __int64_t;
typedef unsigned long int __uint64_t;







typedef long int __quad_t;
typedef unsigned long int __u_quad_t;
# 131 "/usr/include/bits/types.h" 3 4
# 1 "/usr/include/bits/typesizes.h" 1 3 4
# 132 "/usr/include/bits/types.h" 2 3 4


typedef unsigned long int __dev_t;
typedef unsigned int __uid_t;
typedef unsigned int __gid_t;
typedef unsigned long int __ino_t;
typedef unsigned long int __ino64_t;
typedef unsigned int __mode_t;
typedef unsigned long int __nlink_t;
typedef long int __off_t;
typedef long int __off64_t;
typedef int __pid_t;
typedef struct { int __val[2]; } __fsid_t;
typedef long int __clock_t;
typedef unsigned long int __rlim_t;
typedef unsigned long int __rlim64_t;
typedef unsigned int __id_t;
typedef long int __time_t;
typedef unsigned int __useconds_t;
typedef long int __suseconds_t;

typedef int __daddr_t;
typedef long int __swblk_t;
typedef int __key_t;


typedef int __clockid_t;


typedef void * __timer_t;


typedef long int __blksize_t;




typedef long int __blkcnt_t;
typedef long int __blkcnt64_t;


typedef unsigned long int __fsblkcnt_t;
typedef unsigned long int __fsblkcnt64_t;


typedef unsigned long int __fsfilcnt_t;
typedef unsigned long int __fsfilcnt64_t;

typedef long int __ssize_t;



typedef __off64_t __loff_t;
typedef __quad_t *__qaddr_t;
typedef char *__caddr_t;


typedef long int __intptr_t;


typedef unsigned int __socklen_t;
# 37 "/usr/include/stdio.h" 2 3 4
# 45 "/usr/include/stdio.h" 3 4
struct _IO_FILE;



typedef struct _IO_FILE FILE;





# 65 "/usr/include/stdio.h" 3 4
typedef struct _IO_FILE __FILE;
# 75 "/usr/include/stdio.h" 3 4
# 1 "/usr/include/libio.h" 1 3 4
# 32 "/usr/include/libio.h" 3 4
# 1 "/usr/include/_G_config.h" 1 3 4
# 15 "/usr/include/_G_config.h" 3 4
# 1 "/usr/lib64/gcc/x86_64-suse-linux/4.5/include/stddef.h" 1 3 4
# 16 "/usr/include/_G_config.h" 2 3 4




# 1 "/usr/include/wchar.h" 1 3 4
# 83 "/usr/include/wchar.h" 3 4
typedef struct
{
  int __count;
  union
  {

    unsigned int __wch;



    char __wchb[4];
  } __value;
} __mbstate_t;
# 21 "/usr/include/_G_config.h" 2 3 4

typedef struct
{
  __off_t __pos;
  __mbstate_t __state;
} _G_fpos_t;
typedef struct
{
  __off64_t __pos;
  __mbstate_t __state;
} _G_fpos64_t;
# 53 "/usr/include/_G_config.h" 3 4
typedef int _G_int16_t __attribute__ ((__mode__ (__HI__)));
typedef int _G_int32_t __attribute__ ((__mode__ (__SI__)));
typedef unsigned int _G_uint16_t __attribute__ ((__mode__ (__HI__)));
typedef unsigned int _G_uint32_t __attribute__ ((__mode__ (__SI__)));
# 33 "/usr/include/libio.h" 2 3 4
# 53 "/usr/include/libio.h" 3 4
# 1 "/usr/lib64/gcc/x86_64-suse-linux/4.5/include/stdarg.h" 1 3 4
# 40 "/usr/lib64/gcc/x86_64-suse-linux/4.5/include/stdarg.h" 3 4
typedef __builtin_va_list __gnuc_va_list;
# 54 "/usr/include/libio.h" 2 3 4
# 170 "/usr/include/libio.h" 3 4
struct _IO_jump_t; struct _IO_FILE;
# 180 "/usr/include/libio.h" 3 4
typedef void _IO_lock_t;





struct _IO_marker {
  struct _IO_marker *_next;
  struct _IO_FILE *_sbuf;



  int _pos;
# 203 "/usr/include/libio.h" 3 4
};


enum __codecvt_result
{
  __codecvt_ok,
  __codecvt_partial,
  __codecvt_error,
  __codecvt_noconv
};
# 271 "/usr/include/libio.h" 3 4
struct _IO_FILE {
  int _flags;




  char* _IO_read_ptr;
  char* _IO_read_end;
  char* _IO_read_base;
  char* _IO_write_base;
  char* _IO_write_ptr;
  char* _IO_write_end;
  char* _IO_buf_base;
  char* _IO_buf_end;

  char *_IO_save_base;
  char *_IO_backup_base;
  char *_IO_save_end;

  struct _IO_marker *_markers;

  struct _IO_FILE *_chain;

  int _fileno;



  int _flags2;

  __off_t _old_offset;



  unsigned short _cur_column;
  signed char _vtable_offset;
  char _shortbuf[1];



  _IO_lock_t *_lock;
# 319 "/usr/include/libio.h" 3 4
  __off64_t _offset;
# 328 "/usr/include/libio.h" 3 4
  void *__pad1;
  void *__pad2;
  void *__pad3;
  void *__pad4;
  size_t __pad5;

  int _mode;

  char _unused2[15 * sizeof (int) - 4 * sizeof (void *) - sizeof (size_t)];

};


typedef struct _IO_FILE _IO_FILE;


struct _IO_FILE_plus;

extern struct _IO_FILE_plus _IO_2_1_stdin_;
extern struct _IO_FILE_plus _IO_2_1_stdout_;
extern struct _IO_FILE_plus _IO_2_1_stderr_;
# 364 "/usr/include/libio.h" 3 4
typedef __ssize_t __io_read_fn (void *__cookie, char *__buf, size_t __nbytes);







typedef __ssize_t __io_write_fn (void *__cookie, __const char *__buf,
     size_t __n);







typedef int __io_seek_fn (void *__cookie, __off64_t *__pos, int __w);


typedef int __io_close_fn (void *__cookie);
# 416 "/usr/include/libio.h" 3 4
extern int __underflow (_IO_FILE *);
extern int __uflow (_IO_FILE *);
extern int __overflow (_IO_FILE *, int);
# 460 "/usr/include/libio.h" 3 4
extern int _IO_getc (_IO_FILE *__fp);
extern int _IO_putc (int __c, _IO_FILE *__fp);
extern int _IO_feof (_IO_FILE *__fp) __attribute__ ((__nothrow__));
extern int _IO_ferror (_IO_FILE *__fp) __attribute__ ((__nothrow__));

extern int _IO_peekc_locked (_IO_FILE *__fp);





extern void _IO_flockfile (_IO_FILE *) __attribute__ ((__nothrow__));
extern void _IO_funlockfile (_IO_FILE *) __attribute__ ((__nothrow__));
extern int _IO_ftrylockfile (_IO_FILE *) __attribute__ ((__nothrow__));
# 490 "/usr/include/libio.h" 3 4
extern int _IO_vfscanf (_IO_FILE * __restrict, const char * __restrict,
   __gnuc_va_list, int *__restrict);
extern int _IO_vfprintf (_IO_FILE *__restrict, const char *__restrict,
    __gnuc_va_list);
extern __ssize_t _IO_padn (_IO_FILE *, int, __ssize_t);
extern size_t _IO_sgetn (_IO_FILE *, void *, size_t);

extern __off64_t _IO_seekoff (_IO_FILE *, __off64_t, int, int);
extern __off64_t _IO_seekpos (_IO_FILE *, __off64_t, int);

extern void _IO_free_backup_area (_IO_FILE *) __attribute__ ((__nothrow__));
# 76 "/usr/include/stdio.h" 2 3 4
# 89 "/usr/include/stdio.h" 3 4


typedef _G_fpos_t fpos_t;




# 141 "/usr/include/stdio.h" 3 4
# 1 "/usr/include/bits/stdio_lim.h" 1 3 4
# 142 "/usr/include/stdio.h" 2 3 4



extern struct _IO_FILE *stdin;
extern struct _IO_FILE *stdout;
extern struct _IO_FILE *stderr;









extern int remove (__const char *__filename) __attribute__ ((__nothrow__));

extern int rename (__const char *__old, __const char *__new) __attribute__ ((__nothrow__));




extern int renameat (int __oldfd, __const char *__old, int __newfd,
       __const char *__new) __attribute__ ((__nothrow__));








extern FILE *tmpfile (void) ;
# 188 "/usr/include/stdio.h" 3 4
extern char *tmpnam (char *__s) __attribute__ ((__nothrow__)) ;





extern char *tmpnam_r (char *__s) __attribute__ ((__nothrow__)) ;
# 206 "/usr/include/stdio.h" 3 4
extern char *tempnam (__const char *__dir, __const char *__pfx)
     __attribute__ ((__nothrow__)) __attribute__ ((__malloc__)) ;








extern int fclose (FILE *__stream);




extern int fflush (FILE *__stream);

# 231 "/usr/include/stdio.h" 3 4
extern int fflush_unlocked (FILE *__stream);
# 245 "/usr/include/stdio.h" 3 4






extern FILE *fopen (__const char *__restrict __filename,
      __const char *__restrict __modes) ;




extern FILE *freopen (__const char *__restrict __filename,
        __const char *__restrict __modes,
        FILE *__restrict __stream) ;
# 274 "/usr/include/stdio.h" 3 4

# 285 "/usr/include/stdio.h" 3 4
extern FILE *fdopen (int __fd, __const char *__modes) __attribute__ ((__nothrow__)) ;
# 298 "/usr/include/stdio.h" 3 4
extern FILE *fmemopen (void *__s, size_t __len, __const char *__modes)
  __attribute__ ((__nothrow__)) ;




extern FILE *open_memstream (char **__bufloc, size_t *__sizeloc) __attribute__ ((__nothrow__)) ;






extern void setbuf (FILE *__restrict __stream, char *__restrict __buf) __attribute__ ((__nothrow__));



extern int setvbuf (FILE *__restrict __stream, char *__restrict __buf,
      int __modes, size_t __n) __attribute__ ((__nothrow__));





extern void setbuffer (FILE *__restrict __stream, char *__restrict __buf,
         size_t __size) __attribute__ ((__nothrow__));


extern void setlinebuf (FILE *__stream) __attribute__ ((__nothrow__));








extern int fprintf (FILE *__restrict __stream,
      __const char *__restrict __format, ...);




extern int printf (__const char *__restrict __format, ...);

extern int sprintf (char *__restrict __s,
      __const char *__restrict __format, ...) __attribute__ ((__nothrow__));





extern int vfprintf (FILE *__restrict __s, __const char *__restrict __format,
       __gnuc_va_list __arg);




extern int vprintf (__const char *__restrict __format, __gnuc_va_list __arg);

extern int vsprintf (char *__restrict __s, __const char *__restrict __format,
       __gnuc_va_list __arg) __attribute__ ((__nothrow__));





extern int snprintf (char *__restrict __s, size_t __maxlen,
       __const char *__restrict __format, ...)
     __attribute__ ((__nothrow__)) __attribute__ ((__format__ (__printf__, 3, 4)));

extern int vsnprintf (char *__restrict __s, size_t __maxlen,
        __const char *__restrict __format, __gnuc_va_list __arg)
     __attribute__ ((__nothrow__)) __attribute__ ((__format__ (__printf__, 3, 0)));

# 396 "/usr/include/stdio.h" 3 4
extern int vdprintf (int __fd, __const char *__restrict __fmt,
       __gnuc_va_list __arg)
     __attribute__ ((__format__ (__printf__, 2, 0)));
extern int dprintf (int __fd, __const char *__restrict __fmt, ...)
     __attribute__ ((__format__ (__printf__, 2, 3)));








extern int fscanf (FILE *__restrict __stream,
     __const char *__restrict __format, ...) ;




extern int scanf (__const char *__restrict __format, ...) ;

extern int sscanf (__const char *__restrict __s,
     __const char *__restrict __format, ...) __attribute__ ((__nothrow__));
# 427 "/usr/include/stdio.h" 3 4
extern int fscanf (FILE *__restrict __stream, __const char *__restrict __format, ...) __asm__ ("" "__isoc99_fscanf")

                               ;
extern int scanf (__const char *__restrict __format, ...) __asm__ ("" "__isoc99_scanf")
                              ;
extern int sscanf (__const char *__restrict __s, __const char *__restrict __format, ...) __asm__ ("" "__isoc99_sscanf") __attribute__ ((__nothrow__))

                      ;
# 447 "/usr/include/stdio.h" 3 4








extern int vfscanf (FILE *__restrict __s, __const char *__restrict __format,
      __gnuc_va_list __arg)
     __attribute__ ((__format__ (__scanf__, 2, 0))) ;





extern int vscanf (__const char *__restrict __format, __gnuc_va_list __arg)
     __attribute__ ((__format__ (__scanf__, 1, 0))) ;


extern int vsscanf (__const char *__restrict __s,
      __const char *__restrict __format, __gnuc_va_list __arg)
     __attribute__ ((__nothrow__)) __attribute__ ((__format__ (__scanf__, 2, 0)));
# 478 "/usr/include/stdio.h" 3 4
extern int vfscanf (FILE *__restrict __s, __const char *__restrict __format, __gnuc_va_list __arg) __asm__ ("" "__isoc99_vfscanf")



     __attribute__ ((__format__ (__scanf__, 2, 0))) ;
extern int vscanf (__const char *__restrict __format, __gnuc_va_list __arg) __asm__ ("" "__isoc99_vscanf")

     __attribute__ ((__format__ (__scanf__, 1, 0))) ;
extern int vsscanf (__const char *__restrict __s, __const char *__restrict __format, __gnuc_va_list __arg) __asm__ ("" "__isoc99_vsscanf") __attribute__ ((__nothrow__))



     __attribute__ ((__format__ (__scanf__, 2, 0)));
# 506 "/usr/include/stdio.h" 3 4









extern int fgetc (FILE *__stream);
extern int getc (FILE *__stream);





extern int getchar (void);

# 534 "/usr/include/stdio.h" 3 4
extern int getc_unlocked (FILE *__stream);
extern int getchar_unlocked (void);
# 545 "/usr/include/stdio.h" 3 4
extern int fgetc_unlocked (FILE *__stream);











extern int fputc (int __c, FILE *__stream);
extern int putc (int __c, FILE *__stream);





extern int putchar (int __c);

# 578 "/usr/include/stdio.h" 3 4
extern int fputc_unlocked (int __c, FILE *__stream);







extern int putc_unlocked (int __c, FILE *__stream);
extern int putchar_unlocked (int __c);






extern int getw (FILE *__stream);


extern int putw (int __w, FILE *__stream);








extern char *fgets (char *__restrict __s, int __n, FILE *__restrict __stream)
     ;






extern char *gets (char *__s) ;

# 640 "/usr/include/stdio.h" 3 4
extern __ssize_t __getdelim (char **__restrict __lineptr,
          size_t *__restrict __n, int __delimiter,
          FILE *__restrict __stream) ;
extern __ssize_t getdelim (char **__restrict __lineptr,
        size_t *__restrict __n, int __delimiter,
        FILE *__restrict __stream) ;







extern __ssize_t getline (char **__restrict __lineptr,
       size_t *__restrict __n,
       FILE *__restrict __stream) ;








extern int fputs (__const char *__restrict __s, FILE *__restrict __stream);





extern int puts (__const char *__s);






extern int ungetc (int __c, FILE *__stream);






extern size_t fread (void *__restrict __ptr, size_t __size,
       size_t __n, FILE *__restrict __stream) ;




extern size_t fwrite (__const void *__restrict __ptr, size_t __size,
        size_t __n, FILE *__restrict __s) ;

# 712 "/usr/include/stdio.h" 3 4
extern size_t fread_unlocked (void *__restrict __ptr, size_t __size,
         size_t __n, FILE *__restrict __stream) ;
extern size_t fwrite_unlocked (__const void *__restrict __ptr, size_t __size,
          size_t __n, FILE *__restrict __stream) ;








extern int fseek (FILE *__stream, long int __off, int __whence);




extern long int ftell (FILE *__stream) ;




extern void rewind (FILE *__stream);

# 748 "/usr/include/stdio.h" 3 4
extern int fseeko (FILE *__stream, __off_t __off, int __whence);




extern __off_t ftello (FILE *__stream) ;
# 767 "/usr/include/stdio.h" 3 4






extern int fgetpos (FILE *__restrict __stream, fpos_t *__restrict __pos);




extern int fsetpos (FILE *__stream, __const fpos_t *__pos);
# 790 "/usr/include/stdio.h" 3 4

# 799 "/usr/include/stdio.h" 3 4


extern void clearerr (FILE *__stream) __attribute__ ((__nothrow__));

extern int feof (FILE *__stream) __attribute__ ((__nothrow__)) ;

extern int ferror (FILE *__stream) __attribute__ ((__nothrow__)) ;




extern void clearerr_unlocked (FILE *__stream) __attribute__ ((__nothrow__));
extern int feof_unlocked (FILE *__stream) __attribute__ ((__nothrow__)) ;
extern int ferror_unlocked (FILE *__stream) __attribute__ ((__nothrow__)) ;








extern void perror (__const char *__s);






# 1 "/usr/include/bits/sys_errlist.h" 1 3 4
# 27 "/usr/include/bits/sys_errlist.h" 3 4
extern int sys_nerr;
extern __const char *__const sys_errlist[];
# 829 "/usr/include/stdio.h" 2 3 4




extern int fileno (FILE *__stream) __attribute__ ((__nothrow__)) ;




extern int fileno_unlocked (FILE *__stream) __attribute__ ((__nothrow__)) ;
# 848 "/usr/include/stdio.h" 3 4
extern FILE *popen (__const char *__command, __const char *__modes) ;





extern int pclose (FILE *__stream);





extern char *ctermid (char *__s) __attribute__ ((__nothrow__));
# 888 "/usr/include/stdio.h" 3 4
extern void flockfile (FILE *__stream) __attribute__ ((__nothrow__));



extern int ftrylockfile (FILE *__stream) __attribute__ ((__nothrow__)) ;


extern void funlockfile (FILE *__stream) __attribute__ ((__nothrow__));
# 918 "/usr/include/stdio.h" 3 4

# 27 "/usr/include/malloc.h" 2 3 4
# 48 "/usr/include/malloc.h" 3 4



extern void *malloc (size_t __size) __attribute__ ((__nothrow__)) __attribute__ ((__malloc__)) ;


extern void *calloc (size_t __nmemb, size_t __size) __attribute__ ((__nothrow__))
       __attribute__ ((__malloc__)) ;






extern void *realloc (void *__ptr, size_t __size) __attribute__ ((__nothrow__))
       __attribute__ ((__warn_unused_result__));


extern void free (void *__ptr) __attribute__ ((__nothrow__));


extern void cfree (void *__ptr) __attribute__ ((__nothrow__));


extern void *memalign (size_t __alignment, size_t __size) __attribute__ ((__nothrow__))
       __attribute__ ((__malloc__)) ;


extern void *valloc (size_t __size) __attribute__ ((__nothrow__))
       __attribute__ ((__malloc__)) ;



extern void * pvalloc (size_t __size) __attribute__ ((__nothrow__))
       __attribute__ ((__malloc__)) ;



extern void *(*__morecore) (ptrdiff_t __size);


extern void *__default_morecore (ptrdiff_t __size) __attribute__ ((__nothrow__))
       __attribute__ ((__malloc__));



struct mallinfo {
  int arena;
  int ordblks;
  int smblks;
  int hblks;
  int hblkhd;
  int usmblks;
  int fsmblks;
  int uordblks;
  int fordblks;
  int keepcost;
};


extern struct mallinfo mallinfo (void) __attribute__ ((__nothrow__));
# 135 "/usr/include/malloc.h" 3 4
extern int mallopt (int __param, int __val) __attribute__ ((__nothrow__));



extern int malloc_trim (size_t __pad) __attribute__ ((__nothrow__));



extern size_t malloc_usable_size (void *__ptr) __attribute__ ((__nothrow__));


extern void malloc_stats (void) __attribute__ ((__nothrow__));


extern int malloc_info (int __options, FILE *__fp);


extern void *malloc_get_state (void) __attribute__ ((__nothrow__));



extern int malloc_set_state (void *__ptr) __attribute__ ((__nothrow__));




extern void (*__malloc_initialize_hook) (void);

extern void (*__free_hook) (void *__ptr, __const void *)
                             ;
extern void *(*__malloc_hook) (size_t __size, __const void *)
                                  ;
extern void *(*__realloc_hook) (void *__ptr, size_t __size, __const void *)
                                   ;
extern void *(*__memalign_hook) (size_t __alignment, size_t __size, __const void *)

                                    ;
extern void (*__after_morecore_hook) (void);


extern void __malloc_check_init (void) __attribute__ ((__nothrow__));



# 3 "files/rule60_list2.c" 2



int VERDICT_UNSAFE;





int int_nondet(void);

void * guard_malloc_counter = 0;

void * __getMemory(int size)
{
  ((size > 0) ? (0) : __blast_assert ());
  guard_malloc_counter++;
  if (!int_nondet())
 return 0;
  return (void *) guard_malloc_counter;
}

void *my_malloc(int size) {
  return __getMemory(size);
}


struct list_head {
 struct list_head *prev, *next;
};

struct list_head *elem = ((void *)0);

static void list_add(struct list_head *new, struct list_head *head) {
  ((new!=elem) ? (0) : __blast_assert ());
  if(int_nondet())
 elem = new;
}

static void list_del(struct list_head *entry) {
  if(entry==elem)
 elem=((void *)0);
}

static struct list_head head;

int main() {
  struct list_head *dev1, *dev2;
  dev1 = my_malloc(sizeof(*dev1));
  dev2 = my_malloc(sizeof(*dev2));
  if(dev1!=((void *)0) && dev2!=((void *)0)) {
    list_add(dev2, &head);
    list_add(dev1, &head);
    list_del(dev2);
    list_add(dev2, &head);


    list_add(dev1, &head);

  }
  return 0;
}
